%YAML 1.1
%TAG !u! tag:unity3d.com,2011:
--- !u!114 &11400000
MonoBehaviour:
  m_ObjectHideFlags: 0
  m_CorrespondingSourceObject: {fileID: 0}
  m_PrefabInstance: {fileID: 0}
  m_PrefabAsset: {fileID: 0}
  m_GameObject: {fileID: 0}
  m_Enabled: 1
  m_EditorHideFlags: 0
  m_Script: {fileID: 11500000, guid: 471013306c86548dea1bf0ef58f71755, type: 3}
  m_Name: Project2NotDead
  m_EditorClassIdentifier: 
  cardName: Q4/Project2NotDead
  cardDescription: "[game project 2] Vypad\xE1 to, \u017Ee fanou\u0161ci tak docela
    nezapomn\u011Bli. Kj\xF3taku za\u010Dalo ps\xE1t o dlouh\xE9m tichu a f\xF3ra
    se rozbublala ned\u016Fv\u011Brou k va\u0161\xED firm\u011B."
  requirements:
  - statName: quarter
    rule: 0
    value: 4
  - statName: second-game-ignored
    rule: 0
    value: 1
  options:
  - name: "P\u0159iznej, \u017Ee jste projekt nezvl\xE1dli a oznam jeho ofic\xE1ln\xED
      ukon\u010Den\xED."
    companyEffects:
    - statName: pr
      value: -2
      delay: 0
      newsItems: []
  - name: "Oznam, \u017Ee vzhledem k siln\xE9mu p\u0159\xEDb\u011Bhov\xE9mu charakteru
      hry z n\xED nakonec ud\u011Bl\xE1te seri\xE1l, kter\xFD zpracuje firma Petflix."
    companyEffects:
    - statName: pr
      value: -1
      delay: 0
      newsItems: []
    - statName: eur
      value: 2
      delay: 0
      newsItems: []
  - name: "Outsourcuje\u0161 hru do zem\u011B t\u0159et\xEDho sv\u011Bta."
    companyEffects:
    - statName: eur
      value: -1
      delay: 0
      newsItems: []
    - statName: project2-resourced
      value: 1
      delay: 0
      newsItems: []
    - statName: pq-noman
      value: 1
      delay: 0
      newsItems: []
  userType: 0
  weight: 1
  samePlayerAsCard: 
