<svg xmlns="http://www.w3.org/2000/svg" xmlns:xlink="http://www.w3.org/1999/xlink" width="414" height="736" viewBox="0 0 414 736">
  <defs>
    <filter id="Rectangle_32" x="36.5" y="635.5" width="355" height="75" filterUnits="userSpaceOnUse">
      <feOffset dy="5" input="SourceAlpha"/>
      <feGaussianBlur stdDeviation="2.5" result="blur"/>
      <feFlood flood-opacity="0.161"/>
      <feComposite operator="in" in2="blur"/>
      <feComposite in="SourceGraphic"/>
    </filter>
    <clipPath id="clip-iPhone_6_7_8_Plus_12">
      <rect width="414" height="736"/>
    </clipPath>
  </defs>
  <g id="iPhone_6_7_8_Plus_12" data-name="iPhone 6/7/8 Plus – 12" clip-path="url(#clip-iPhone_6_7_8_Plus_12)">
    <rect width="414" height="736" fill="#9474e1"/>
    <text id="Player_2" data-name="Player 2" transform="translate(137 359)" fill="#fff" font-size="35" font-family="ObjektivMk1-Medium, Objektiv Mk1" font-weight="500"><tspan x="0" y="0">Player 2</tspan></text>
    <g id="Icon_feather-settings" data-name="Icon feather-settings" transform="translate(16.3 19)">
      <path id="Path_20" data-name="Path 20" d="M13.5,18A4.5,4.5,0,1,0,18,13.5,4.5,4.5,0,0,0,13.5,18Z" transform="translate(-1.5 -1.5)" fill="none" stroke="#f5f6fb" stroke-linecap="round" stroke-linejoin="round" stroke-width="2.5"/>
      <path id="Path_21" data-name="Path 21" d="M6.9,22.5a2.475,2.475,0,0,1-.495,2.73l-.09.09a3,3,0,1,0,4.245,4.245l.09-.09a2.5,2.5,0,0,1,4.23,1.77V31.5a3,3,0,0,0,6,0v-.135a2.6,2.6,0,0,1,4.35-1.77l.09.09a3,3,0,1,0,4.245-4.245l-.09-.09a2.5,2.5,0,0,1,1.77-4.23H31.5a3,3,0,0,0,0-6h-.135A2.475,2.475,0,0,1,29.1,13.5a2.475,2.475,0,0,1,.5-2.73l.09-.09A3,3,0,1,0,25.44,6.435l-.09.09a2.475,2.475,0,0,1-2.73.495H22.5A2.475,2.475,0,0,1,21,4.755V4.5a3,3,0,0,0-6,0v.135a2.5,2.5,0,0,1-4.23,1.77l-.09-.09A3,3,0,1,0,6.435,10.56l.09.09a2.475,2.475,0,0,1,.5,2.73v.12A2.475,2.475,0,0,1,4.755,15H4.5a3,3,0,0,0,0,6h.135A2.475,2.475,0,0,1,6.9,22.5Z" transform="translate(-1.5 -1.5)" fill="none" stroke="#f5f6fb" stroke-linecap="round" stroke-linejoin="round" stroke-width="2.5"/>
    </g>
    <path id="Icon_awesome-history" data-name="Icon awesome-history" d="M33.937,17.218A16.688,16.688,0,0,1,6.777,30.243a1.614,1.614,0,0,1-.124-2.4l.758-.758a1.618,1.618,0,0,1,2.146-.133,12.382,12.382,0,1,0-.79-18.726l3.415,3.415a1.077,1.077,0,0,1-.761,1.838H1.639A1.077,1.077,0,0,1,.563,12.405V2.623A1.077,1.077,0,0,1,2.4,1.862L5.723,5.184A16.687,16.687,0,0,1,33.937,17.218Zm-12.173,5.3.661-.85a1.615,1.615,0,0,0-.283-2.266L19.4,17.273V10.252a1.615,1.615,0,0,0-1.615-1.615H16.712A1.615,1.615,0,0,0,15.1,10.252V19.38L19.5,22.8a1.615,1.615,0,0,0,2.266-.283Z" transform="translate(366.262 18.938)" fill="#f5f6fb" stroke="#9474e1" stroke-width="1"/>
    <g id="Artboard1" transform="translate(421.797 -152.362)">
      <g id="Group_12" data-name="Group 12" transform="translate(-259.662 166.72)">
        <text id="V" transform="translate(0 26)" fill="#fff" font-size="29" font-family="BerlinBold, Berlin"><tspan x="0" y="0">V</tspan></text>
        <text id="IDEO" transform="translate(19.999 26.61)" fill="#fff" font-size="23" font-family="BerlinBold, Berlin"><tspan x="0" y="0">IDEO</tspan></text>
        <text id="G" transform="translate(68.687 27)" fill="#fff" font-size="30" font-family="BerlinBold, Berlin"><tspan x="0" y="0">G</tspan></text>
        <text id="AME" transform="translate(88.153 26.61)" fill="#fff" font-size="23" font-family="BerlinBold, Berlin"><tspan x="0" y="0">AME</tspan></text>
      </g>
      <g id="Group_13" data-name="Group 13" transform="translate(-229.99 194.719)">
        <text id="CORP._COMMUNICATOR" data-name="CORP. COMMUNICATOR" transform="translate(6 10)" fill="#fff" font-size="10" font-family="Berlin"><tspan x="0" y="0">CORP. COMMUNICATOR</tspan></text>
      </g>
      <g id="Group_14" data-name="Group 14" transform="translate(-299.997 171.756)">
        <path id="Path_22" data-name="Path 22" d="M-607.025-31.905a3.077,3.077,0,0,1,2.1-.715,3.07,3.07,0,0,1,2.1.715h7.461a6.266,6.266,0,0,1,4.188,1.6,9.04,9.04,0,0,1,2.613,3.075c1.675,3.25,3.908,12.71,2.776,14.825s-3.647,6.3-9.564-2.136a43.058,43.058,0,0,1-2.938-4.782S-602.739-21-604.95-21s-6.612,1.674-6.612,1.674a42.837,42.837,0,0,1-2.938,4.782c-5.916,8.441-8.432,4.251-9.563,2.136s1.1-11.575,2.776-14.825a9.043,9.043,0,0,1,2.36-2.879,6.267,6.267,0,0,1,4.4-1.795Zm11.892,7.005a1.073,1.073,0,0,1,1.072,1.072,1.073,1.073,0,0,1-1.072,1.072,1.073,1.073,0,0,1-1.072-1.072A1.073,1.073,0,0,1-595.133-24.9Zm-20.075-.44V-24.1a.919.919,0,0,0,.918.918.919.919,0,0,0,.918-.918V-25.34h1.238a.919.919,0,0,0,.918-.918.919.919,0,0,0-.918-.918h-1.238v-1.238a.919.919,0,0,0-.918-.918.919.919,0,0,0-.918.918v1.238h-1.238a.919.919,0,0,0-.918.918.919.919,0,0,0,.918.918Zm23.435-.7a1.073,1.073,0,0,1-1.072,1.072,1.073,1.073,0,0,1-1.072-1.072,1.073,1.073,0,0,1,1.072-1.072A1.073,1.073,0,0,1-591.774-26.044Zm-4.432,0a1.073,1.073,0,0,1-1.072,1.072,1.073,1.073,0,0,1-1.072-1.072,1.073,1.073,0,0,1,1.072-1.072A1.073,1.073,0,0,1-596.206-26.044Zm1.072-3.288a1.073,1.073,0,0,1,1.072,1.072,1.073,1.073,0,0,1-1.072,1.072,1.073,1.073,0,0,1-1.072-1.072A1.073,1.073,0,0,1-595.133-29.332Z" transform="translate(624.37 32.62)" fill="#fff" fill-rule="evenodd"/>
      </g>
    </g>
    <g transform="matrix(1, 0, 0, 1, 0, 0)" filter="url(#Rectangle_32)">
      <rect id="Rectangle_32-2" data-name="Rectangle 32" width="340" height="60" rx="7" transform="translate(44 638)" fill="#6d51c6"/>
    </g>
    <text id="Start_your_round" data-name="Start your round" transform="translate(114 675)" fill="#fff" font-size="25" font-family="ObjektivMk1-Medium, Objektiv Mk1" font-weight="500"><tspan x="0" y="0">Start your round</tspan></text>
    <g id="Group_19" data-name="Group 19" transform="translate(56 463.731)">
      <path id="Path_25" data-name="Path 25" d="M10.332-295.219l10.745,15.992a1.817,1.817,0,0,0,1.969.744L27.4-279.63l10.584,13.569a1.813,1.813,0,0,0,1.32.7,1.827,1.827,0,0,0,1.4-.528l9.931-9.931,12.6,14.761a1.793,1.793,0,0,0,1.456.635,1.814,1.814,0,0,0,1.4-.754L80.637-281.42,90-276.865a1.815,1.815,0,0,0,2.1-.367l17.94-18.468a77.338,77.338,0,0,1,5.956,41.9c-3.464,23.449-28.723,40.863-60.06,41.409-.224,0-.452.006-.676.006-16.761,0-33.886-10.408-43.629-26.514C5.656-248.771-2.209-268.957,10.332-295.219ZM34.6-332.746a88.06,88.06,0,0,1,12.892-.828,1.819,1.819,0,0,0,1.341-.531l1.4-1.4L52.75-332a1.815,1.815,0,0,0,2.109.637l5.671-2.127L68.136-323a1.814,1.814,0,0,0,1.245.736,1.806,1.806,0,0,0,1.387-.406l7.642-6.368,4.668,3.268a1.817,1.817,0,0,0,1.041.328h11.11l7,7.519c.611,2.194,3.471,12.98,3.226,21.732L90.408-280.7l-9.558-4.65a1.814,1.814,0,0,0-2.269.573L64.5-265.184,52.12-279.676a1.816,1.816,0,0,0-1.309-.636,1.8,1.8,0,0,0-1.355.531l-9.868,9.867L29.53-282.807a1.815,1.815,0,0,0-1.894-.639l-4.266,1.122-2.52-3.751C20.578-289.609,19.3-314.34,34.6-332.746ZM69.972-364.1a41.236,41.236,0,0,1,10.853,1.434c10.981,2.995,17.9,11.135,20.558,24.194a62.412,62.412,0,0,1,1.031,15.414L97.348-328.5a1.816,1.816,0,0,0-1.329-.578H84.691l-5.336-3.735a1.816,1.816,0,0,0-2.2.093l-7.216,6.013-7.278-10.038a1.816,1.816,0,0,0-2.107-.634l-5.669,2.126-2.962-4.1a1.815,1.815,0,0,0-1.327-.747,1.811,1.811,0,0,0-1.429.526l-2.354,2.354a120.392,120.392,0,0,0-19.421,1.864C32.448-351.433,50.894-364.1,69.972-364.1ZM55.256-208.755c.245,0,.494,0,.739-.006,15.7-.273,30.659-4.681,42.134-12.413,12.144-8.182,19.563-19.281,21.456-32.1a78.731,78.731,0,0,0-7.467-46.432,1.814,1.814,0,0,0-1.348-.914,1.818,1.818,0,0,0-1.539.535l-.2.2a95.91,95.91,0,0,0-3.325-19.1,65.94,65.94,0,0,0-.746-20.122c-2.9-14.365-10.913-23.726-23.18-27.071a44.893,44.893,0,0,0-11.809-1.562,51.427,51.427,0,0,0-29.984,9.949c-8.875,6.461-14.862,15.1-16.857,24.332a1.816,1.816,0,0,0,.478,1.655,1.821,1.821,0,0,0,1.645.511c.044-.009,1.683-.326,4.177-.723-10.453,14.475-12.266,31.262-12.384,40.272l-5.438-8.094a1.818,1.818,0,0,0-1.606-.8,1.816,1.816,0,0,0-1.509.97C-2.84-278.031-2.831-255.785,8.52-237.02,18.907-219.85,37.252-208.755,55.256-208.755Z" transform="translate(0 0)" fill="#f5f6fb" stroke="#f5f6fb" stroke-width="1"/>
      <path id="Path_26" data-name="Path 26" d="M102.821-237.607a3.822,3.822,0,1,0,0-7.642A3.822,3.822,0,1,0,102.821-237.607Z" transform="translate(-56.145 -69.531)" fill="#f5f6fb" stroke="#f5f6fb" stroke-width="1"/>
      <path id="Path_27" data-name="Path 27" d="M180-235.282a3.822,3.822,0,1,0,0-7.642A3.822,3.822,0,1,0,180-235.282Z" transform="translate(-99.96 -70.851)" fill="#f5f6fb" stroke="#f5f6fb" stroke-width="1"/>
      <path id="Path_28" data-name="Path 28" d="M134.39-222.552c1.451.056,5.733-7.259,5.769-8.159.085-2.116-3.447-5.1-6.349-5.726-1.7-.368-6.1,4.306-6.386,5.758S133-222.606,134.39-222.552Z" transform="translate(-72.33 -74.522)" fill="#f5f6fb" stroke="#f5f6fb" stroke-width="1"/>
    </g>
    <g id="Group_21" data-name="Group 21" transform="translate(-66 -36)">
      <g id="Group_20" data-name="Group 20" transform="translate(255 418.51)">
        <path id="Path_29" data-name="Path 29" d="M78.7-189.369l14.8,14.8c6.411-3.578,28.049-16.249,46.566-34.085,17.4-16.764,19.143-38.954,19.2-46.477-7.522.054-29.713,1.791-46.477,19.2C94.952-217.417,82.28-195.779,78.7-189.369Zm14.281,21.346a2.923,2.923,0,0,1-2.07-.857l-17.9-17.9a2.927,2.927,0,0,1-.524-3.426c.577-1.1,14.379-27.258,36.081-49.791,22.37-23.223,52.524-21.014,53.793-20.91a2.928,2.928,0,0,1,2.676,2.676c.1,1.272,2.312,31.424-20.911,53.793-22.532,21.7-48.688,35.5-49.79,36.081A2.915,2.915,0,0,1,92.984-168.023Z" transform="translate(-36.629)" fill="#f5f6fb"/>
        <path id="Path_30" data-name="Path 30" d="M59.45-113.042,77.2-95.291l2.823-3.989L63.439-115.864Zm18.135,25.2a2.924,2.924,0,0,1-2.07-.858L52.857-111.357a2.928,2.928,0,0,1-.847-2.318,2.927,2.927,0,0,1,1.226-2.141l8.837-6.253a2.924,2.924,0,0,1,3.76.32l20.075,20.075a2.926,2.926,0,0,1,.32,3.76l-6.253,8.836a2.926,2.926,0,0,1-2.141,1.226Q77.708-87.841,77.585-87.841Z" transform="translate(-26.397 -70.257)" fill="#f5f6fb"/>
        <path id="Path_31" data-name="Path 31" d="M40.436-155.056,2.665-158.463a2.929,2.929,0,0,1-2.489-1.917,2.926,2.926,0,0,1,.683-3.067l18.581-18.581A31.523,31.523,0,0,1,43.762-191.2l16.508,1.062-.376,5.841-16.508-1.062a25.709,25.709,0,0,0-19.808,7.468L9.419-163.731l31.543,2.845Z" transform="translate(0 -35.403)" fill="#f5f6fb"/>
        <path id="Path_32" data-name="Path 32" d="M124.048-62.138a2.932,2.932,0,0,1-1-.175,2.927,2.927,0,0,1-1.917-2.489l-3.408-37.772,5.83-.526L126.4-71.556l14.158-14.158a25.689,25.689,0,0,0,7.469-19.808l-1.062-16.508,5.841-.376L153.87-105.9A31.538,31.538,0,0,1,144.7-81.576L126.118-63A2.925,2.925,0,0,1,124.048-62.138Z" transform="translate(-59.762 -70.358)" fill="#f5f6fb"/>
        <path id="Path_33" data-name="Path 33" d="M35.759-65.35c-2.106,0-3.507-.129-3.749-.153a2.927,2.927,0,0,1-2.534-2.141,2.929,2.929,0,0,1,1.094-3.132c2.5-1.833,2.55-3.687,2.423-8.078a38.9,38.9,0,0,1,.587-9.418c2.261-10.941,13.559-12.369,14.038-12.425l.688,5.813c-.31.039-7.6,1.038-8.994,7.8a33.027,33.027,0,0,0-.469,8.065,20.762,20.762,0,0,1-.745,7.733c7.068-.379,18.741-2.591,21.445-12.828l5.659,1.5C61.11-67.126,43.576-65.35,35.759-65.35Z" transform="translate(-14.911 -81.378)" fill="#f5f6fb"/>
        <path id="Path_34" data-name="Path 34" d="M219.359-224.738,196.906-247.19l4.139-4.139L223.5-228.876Z" transform="translate(-99.956 -4.913)" fill="#f5f6fb"/>
        <path id="Path_35" data-name="Path 35" d="M154.619-188.619a8.315,8.315,0,0,0-5.9,2.438,8.348,8.348,0,0,0,0,11.792,8.349,8.349,0,0,0,11.792,0,8.348,8.348,0,0,0,0-11.792A8.315,8.315,0,0,0,154.619-188.619Zm0,20.764a12.4,12.4,0,0,1-8.793-3.637,12.449,12.449,0,0,1,0-17.586,12.45,12.45,0,0,1,17.586,0,12.449,12.449,0,0,1,0,17.586A12.4,12.4,0,0,1,154.619-167.855Z" transform="translate(-72.18 -34.668)" fill="#f5f6fb"/>
      </g>
    </g>
  </g>
</svg>
