<svg xmlns="http://www.w3.org/2000/svg" xmlns:xlink="http://www.w3.org/1999/xlink" width="414" height="736" viewBox="0 0 414 736">
  <defs>
    <filter id="Rectangle_6" x="29.5" y="481.5" width="355" height="75" filterUnits="userSpaceOnUse">
      <feOffset dy="5" input="SourceAlpha"/>
      <feGaussianBlur stdDeviation="2.5" result="blur"/>
      <feFlood flood-opacity="0.161"/>
      <feComposite operator="in" in2="blur"/>
      <feComposite in="SourceGraphic"/>
    </filter>
    <filter id="Rectangle_6-2" x="29.5" y="560.5" width="355" height="75" filterUnits="userSpaceOnUse">
      <feOffset dy="5" input="SourceAlpha"/>
      <feGaussianBlur stdDeviation="2.5" result="blur-2"/>
      <feFlood flood-opacity="0.161"/>
      <feComposite operator="in" in2="blur-2"/>
      <feComposite in="SourceGraphic"/>
    </filter>
    <filter id="Rectangle_6-3" x="29.5" y="639.5" width="355" height="75" filterUnits="userSpaceOnUse">
      <feOffset dy="5" input="SourceAlpha"/>
      <feGaussianBlur stdDeviation="2.5" result="blur-3"/>
      <feFlood flood-opacity="0.161"/>
      <feComposite operator="in" in2="blur-3"/>
      <feComposite in="SourceGraphic"/>
    </filter>
    <filter id="Rectangle_1" x="29.5" y="171.5" width="355" height="302" filterUnits="userSpaceOnUse">
      <feOffset dy="5" input="SourceAlpha"/>
      <feGaussianBlur stdDeviation="2.5" result="blur-4"/>
      <feFlood flood-opacity="0.161"/>
      <feComposite operator="in" in2="blur-4"/>
      <feComposite in="SourceGraphic"/>
    </filter>
    <clipPath id="clip-path">
      <path id="Path_6" data-name="Path 6" d="M13.04-35.04A13.046,13.046,0,0,1,26.08-22,13.046,13.046,0,0,1,13.04-8.96,13.046,13.046,0,0,1,0-22,13.046,13.046,0,0,1,13.04-35.04Z" transform="translate(0 35.04)" fill="none" clip-rule="evenodd"/>
    </clipPath>
    <clipPath id="clip-path-2">
      <path id="Path_5" data-name="Path 5" d="M.48-4.979H25.845V-27.36H.48Z" transform="translate(-0.48 27.36)" fill="none" clip-rule="evenodd"/>
    </clipPath>
    <clipPath id="clip-path-3">
      <rect id="Rectangle_9" data-name="Rectangle 9" width="25.365" height="22.381" fill="#e5e8f6"/>
    </clipPath>
    <filter id="Rectangle_10" x="37.5" y="79.5" width="85" height="38" filterUnits="userSpaceOnUse">
      <feOffset dy="5" input="SourceAlpha"/>
      <feGaussianBlur stdDeviation="2.5" result="blur-5"/>
      <feFlood flood-opacity="0.161"/>
      <feComposite operator="in" in2="blur-5"/>
      <feComposite in="SourceGraphic"/>
    </filter>
    <filter id="Rectangle_11" x="141.5" y="79.5" width="85" height="38" filterUnits="userSpaceOnUse">
      <feOffset dy="5" input="SourceAlpha"/>
      <feGaussianBlur stdDeviation="2.5" result="blur-6"/>
      <feFlood flood-opacity="0.161"/>
      <feComposite operator="in" in2="blur-6"/>
      <feComposite in="SourceGraphic"/>
    </filter>
    <filter id="Rectangle_12" x="242.5" y="79.5" width="85" height="38" filterUnits="userSpaceOnUse">
      <feOffset dy="5" input="SourceAlpha"/>
      <feGaussianBlur stdDeviation="2.5" result="blur-7"/>
      <feFlood flood-opacity="0.161"/>
      <feComposite operator="in" in2="blur-7"/>
      <feComposite in="SourceGraphic"/>
    </filter>
    <clipPath id="clip-iPhone_6_7_8_Plus_4">
      <rect width="414" height="736"/>
    </clipPath>
  </defs>
  <g id="iPhone_6_7_8_Plus_4" data-name="iPhone 6/7/8 Plus – 4" clip-path="url(#clip-iPhone_6_7_8_Plus_4)">
    <rect width="414" height="736" fill="#9474e1"/>
    <rect id="Rectangle_5" data-name="Rectangle 5" width="414" height="461" transform="translate(0 275)" fill="#f5f6fb"/>
    <text id="Player_1" data-name="Player 1" transform="translate(37 154)" fill="#fff" font-size="25" font-family="ObjektivMk1-Medium, Objektiv Mk1" font-weight="500"><tspan x="0" y="0">Player 1</tspan></text>
    <g transform="matrix(1, 0, 0, 1, 0, 0)" filter="url(#Rectangle_6)">
      <rect id="Rectangle_6-4" data-name="Rectangle 6" width="340" height="60" rx="7" transform="translate(37 484)" fill="#9474e1"/>
    </g>
    <g transform="matrix(1, 0, 0, 1, 0, 0)" filter="url(#Rectangle_6-2)">
      <rect id="Rectangle_6-5" data-name="Rectangle 6" width="340" height="60" rx="7" transform="translate(37 563)" fill="#9474e1"/>
    </g>
    <g transform="matrix(1, 0, 0, 1, 0, 0)" filter="url(#Rectangle_6-3)">
      <rect id="Rectangle_6-6" data-name="Rectangle 6" width="340" height="60" rx="7" transform="translate(37 642)" fill="#9474e1"/>
    </g>
    <text id="Focus_on_developing_the_current_game" data-name="Focus on developing the current game" transform="translate(50 519)" fill="#fff" font-size="12" font-family="ObjektivMk1-Medium, Objektiv Mk1" font-weight="500"><tspan x="0" y="0">Focus on developing the current game</tspan></text>
    <text id="Give_them_a_chance_to_work_on_their_idea" data-name="Give them a chance to work on their idea" transform="translate(50 598)" fill="#fff" font-size="12" font-family="ObjektivMk1-Medium, Objektiv Mk1" font-weight="500"><tspan x="0" y="0">Give them a chance to work on their idea</tspan></text>
    <text id="Steal_their_idea_and_let_them_off" data-name="Steal their idea and let them off" transform="translate(50 676)" fill="#fff" font-size="12" font-family="ObjektivMk1-Medium, Objektiv Mk1" font-weight="500"><tspan x="0" y="0">Steal their idea and let them off</tspan></text>
    <path id="Path_1" data-name="Path 1" d="M359,164l7.4,22.4h-9.867Z" transform="translate(1 3)" fill="#8da332"/>
    <g transform="matrix(1, 0, 0, 1, 0, 0)" filter="url(#Rectangle_1)">
      <rect id="Rectangle_1-2" data-name="Rectangle 1" width="340" height="287" rx="7" transform="translate(37 174)" fill="#fff"/>
    </g>
    <path id="Subtraction_1" data-name="Subtraction 1" d="M323,66H21a3,3,0,0,1-3-3V19H326V63A3,3,0,0,1,323,66Z" transform="translate(35 148)" fill="#c7e451"/>
    <g id="Icon_ionic-md-person-add" data-name="Icon ionic-md-person-add" transform="translate(328.325 490.5)">
      <path id="Path_2" data-name="Path 2" d="M32.425,35.683v0Z" transform="translate(0 -2)" fill="#fff"/>
    </g>
    <g id="Group_8" data-name="Group 8" transform="translate(306 535.04)">
      <path id="Path_3" data-name="Path 3" d="M13.04-35.04A13.046,13.046,0,0,1,26.08-22,13.046,13.046,0,0,1,13.04-8.96,13.046,13.046,0,0,1,0-22,13.046,13.046,0,0,1,13.04-35.04Z" transform="translate(0)" fill="#fff" fill-rule="evenodd"/>
      <g id="Group_7" data-name="Group 7" transform="translate(0 -35.04)" clip-path="url(#clip-path)">
        <g id="Group_6" data-name="Group 6" transform="translate(0.357 5.716)" clip-path="url(#clip-path-2)">
          <g id="Group_5" data-name="Group 5">
            <g id="Group_4" data-name="Group 4">
              <g id="Group_3" data-name="Group 3" style="isolation: isolate">
                <g id="Group_2" data-name="Group 2">
                  <g id="Group_1" data-name="Group 1" clip-path="url(#clip-path-3)">
                    <path id="Path_4" data-name="Path 4" d="M12.658-16.2c3.481,0,6.329-3.251,6.329-7.225a6.315,6.315,0,0,0-6.329-6.644,6.315,6.315,0,0,0-6.329,6.644C6.329-19.453,9.177-16.2,12.658-16.2Zm0-2.667C8.465-18.868,0-16.43,0-11.643v3.612H25.316v-3.612C25.316-16.43,16.851-18.868,12.658-18.868Z" transform="translate(0 30.071)" fill="#e5e8f6"/>
                  </g>
                </g>
              </g>
            </g>
          </g>
        </g>
      </g>
    </g>
    <g id="Group_9" data-name="Group 9" transform="translate(306 616.04)">
      <path id="Path_3-2" data-name="Path 3" d="M13.04-35.04A13.046,13.046,0,0,1,26.08-22,13.046,13.046,0,0,1,13.04-8.96,13.046,13.046,0,0,1,0-22,13.046,13.046,0,0,1,13.04-35.04Z" transform="translate(0)" fill="#fff" fill-rule="evenodd"/>
      <g id="Group_7-2" data-name="Group 7" transform="translate(0 -35.04)" clip-path="url(#clip-path)">
        <g id="Group_6-2" data-name="Group 6" transform="translate(0.357 5.716)" clip-path="url(#clip-path-2)">
          <g id="Group_5-2" data-name="Group 5">
            <g id="Group_4-2" data-name="Group 4">
              <g id="Group_3-2" data-name="Group 3" style="isolation: isolate">
                <g id="Group_2-2" data-name="Group 2">
                  <g id="Group_1-2" data-name="Group 1" clip-path="url(#clip-path-3)">
                    <path id="Path_4-2" data-name="Path 4" d="M12.658-16.2c3.481,0,6.329-3.251,6.329-7.225a6.315,6.315,0,0,0-6.329-6.644,6.315,6.315,0,0,0-6.329,6.644C6.329-19.453,9.177-16.2,12.658-16.2Zm0-2.667C8.465-18.868,0-16.43,0-11.643v3.612H25.316v-3.612C25.316-16.43,16.851-18.868,12.658-18.868Z" transform="translate(0 30.071)" fill="#e5e8f6"/>
                  </g>
                </g>
              </g>
            </g>
          </g>
        </g>
      </g>
    </g>
    <text id="_3" data-name="+3" transform="translate(319 599)" fill="#6ae451" font-size="13" font-family="ObjektivMk1-Bold, Objektiv Mk1" font-weight="700"><tspan x="-8.06" y="0">+3</tspan></text>
    <text id="_-1" data-name="-1" transform="translate(319 518)" fill="#f66" font-size="13" font-family="ObjektivMk1-Bold, Objektiv Mk1" font-weight="700"><tspan x="-6.819" y="0">-1</tspan></text>
    <g id="Group_10" data-name="Group 10" transform="translate(306 697.04)">
      <path id="Path_3-3" data-name="Path 3" d="M13.04-35.04A13.046,13.046,0,0,1,26.08-22,13.046,13.046,0,0,1,13.04-8.96,13.046,13.046,0,0,1,0-22,13.046,13.046,0,0,1,13.04-35.04Z" transform="translate(0)" fill="#fff" fill-rule="evenodd"/>
      <g id="Group_7-3" data-name="Group 7" transform="translate(0 -35.04)" clip-path="url(#clip-path)">
        <g id="Group_6-3" data-name="Group 6" transform="translate(0.357 5.716)" clip-path="url(#clip-path-2)">
          <g id="Group_5-3" data-name="Group 5">
            <g id="Group_4-3" data-name="Group 4">
              <g id="Group_3-3" data-name="Group 3" style="isolation: isolate">
                <g id="Group_2-3" data-name="Group 2">
                  <g id="Group_1-3" data-name="Group 1" clip-path="url(#clip-path-3)">
                    <path id="Path_4-3" data-name="Path 4" d="M12.658-16.2c3.481,0,6.329-3.251,6.329-7.225a6.315,6.315,0,0,0-6.329-6.644,6.315,6.315,0,0,0-6.329,6.644C6.329-19.453,9.177-16.2,12.658-16.2Zm0-2.667C8.465-18.868,0-16.43,0-11.643v3.612H25.316v-3.612C25.316-16.43,16.851-18.868,12.658-18.868Z" transform="translate(0 30.071)" fill="#e5e8f6"/>
                  </g>
                </g>
              </g>
            </g>
          </g>
        </g>
      </g>
    </g>
    <text id="_-3" data-name="-3" transform="translate(319 680)" fill="#f66" font-size="13" font-family="ObjektivMk1-Bold, Objektiv Mk1" font-weight="700"><tspan x="-6.819" y="0">-3</tspan></text>
    <g id="Group_11" data-name="Group 11" transform="translate(339 615.04)">
      <path id="Path_3-4" data-name="Path 3" d="M13.04-35.04A13.046,13.046,0,0,1,26.08-22,13.046,13.046,0,0,1,13.04-8.96,13.046,13.046,0,0,1,0-22,13.046,13.046,0,0,1,13.04-35.04Z" transform="translate(2 1)" fill="#fff" fill-rule="evenodd"/>
      <path id="Icon_metro-dollar2" data-name="Icon metro-dollar2" d="M21.819,17.268a4.836,4.836,0,0,1-1.265,3.35,5.46,5.46,0,0,1-3.286,1.735v2.225a.392.392,0,0,1-.407.407H15.145a.413.413,0,0,1-.407-.407V22.354a8.013,8.013,0,0,1-1.621-.394,7.807,7.807,0,0,1-2.231-1.176,7.245,7.245,0,0,1-.591-.477q-.159-.153-.222-.229a.386.386,0,0,1-.025-.521l1.309-1.716a.4.4,0,0,1,.292-.153.315.315,0,0,1,.305.114l.025.025a6.639,6.639,0,0,0,3.089,1.589,4.441,4.441,0,0,0,.941.1,3.083,3.083,0,0,0,1.812-.547,1.781,1.781,0,0,0,.782-1.551,1.289,1.289,0,0,0-.191-.674,2.382,2.382,0,0,0-.426-.534,3.489,3.489,0,0,0-.744-.477q-.508-.261-.839-.407t-1.017-.413q-.5-.2-.782-.318t-.782-.337q-.5-.222-.795-.394t-.718-.451a4.477,4.477,0,0,1-.68-.54,7.924,7.924,0,0,1-.553-.623,3.11,3.11,0,0,1-.451-.737,5.1,5.1,0,0,1-.267-.845,4.413,4.413,0,0,1-.108-.992A4.347,4.347,0,0,1,11.5,6.6a5.817,5.817,0,0,1,3.242-1.7V2.61a.413.413,0,0,1,.407-.407h1.716a.392.392,0,0,1,.407.407V4.848a7.071,7.071,0,0,1,1.4.292,8.145,8.145,0,0,1,1.106.426,6.125,6.125,0,0,1,.807.477q.381.267.5.369t.191.178a.368.368,0,0,1,.064.483l-1.03,1.856a.346.346,0,0,1-.292.2.405.405,0,0,1-.343-.089q-.038-.038-.184-.153t-.5-.337a6.56,6.56,0,0,0-.744-.407,5.678,5.678,0,0,0-.947-.331,4.241,4.241,0,0,0-1.087-.146,3.3,3.3,0,0,0-1.971.547,1.709,1.709,0,0,0-.655,2.021,1.431,1.431,0,0,0,.375.528,5.6,5.6,0,0,0,.5.42,4.478,4.478,0,0,0,.712.394q.477.222.769.343t.89.35q.674.254,1.03.4t.966.445a7.681,7.681,0,0,1,.96.54,8.117,8.117,0,0,1,.788.636,3.292,3.292,0,0,1,.674.807,4.607,4.607,0,0,1,.4.973,4.194,4.194,0,0,1,.165,1.2Z" transform="translate(-0.957 -34.177)" fill="#e5e8f6"/>
    </g>
    <text id="_-4" data-name="-4" transform="translate(354 599)" fill="#f66" font-size="13" font-family="ObjektivMk1-Bold, Objektiv Mk1" font-weight="700"><tspan x="-6.819" y="0">-4</tspan></text>
    <g transform="matrix(1, 0, 0, 1, 0, 0)" filter="url(#Rectangle_10)">
      <rect id="Rectangle_10-2" data-name="Rectangle 10" width="70" height="23" rx="10" transform="translate(45 82)" fill="#6d51c6"/>
    </g>
    <g id="Icon_ionic-md-person-add-2" data-name="Icon ionic-md-person-add" transform="translate(28.988 71.983)">
      <path id="Path_2-2" data-name="Path 2" d="M21.01,26.119c3.613,0,6.568-3.541,6.568-7.868s-2.955-7.235-6.568-7.235-6.568,2.908-6.568,7.235S17.4,26.119,21.01,26.119Zm0-2.9c-4.351,0-13.135,2.655-13.135,7.868v3.934h26.27V31.083C34.145,25.871,25.361,23.215,21.01,23.215Z" transform="translate(0 -2)" fill="#f5f6fb"/>
    </g>
    <text id="_7" data-name="7" transform="translate(83 98)" fill="#f5f6fb" font-size="15" font-family="ObjektivMk1-Bold, Objektiv Mk1" font-weight="700"><tspan x="-4.65" y="0">7</tspan></text>
    <text id="Your_employees_came_up_with_an_idea_for_another_game_They_are_sure_it_will_be_a_success._What_are_you_gonna_do_" data-name="Your employees came up with an idea for another game! They are sure it will be a success. What are you gonna do?" transform="translate(69 244)" fill="#595959" font-size="20" font-family="ObjektivMk1-Medium, Objektiv Mk1" font-weight="500"><tspan x="15.41" y="16">Your employees came up </tspan><tspan x="19.46" y="45">with an idea for another </tspan><tspan x="9.71" y="74">game! They are sure it will </tspan><tspan x="5.44" y="103">be a success. What are you </tspan><tspan x="86.63" y="132">gonna do?</tspan></text>
    <g transform="matrix(1, 0, 0, 1, 0, 0)" filter="url(#Rectangle_11)">
      <rect id="Rectangle_11-2" data-name="Rectangle 11" width="70" height="23" rx="10" transform="translate(149 82)" fill="#6d51c6"/>
    </g>
    <text id="_1" data-name="1" transform="translate(189 98)" fill="#f5f6fb" font-size="15" font-family="ObjektivMk1-Bold, Objektiv Mk1" font-weight="700"><tspan x="-4.65" y="0">1</tspan></text>
    <path id="Icon_awesome-surprise" data-name="Icon awesome-surprise" d="M13.469.563A13.469,13.469,0,1,0,26.938,14.031,13.466,13.466,0,0,0,13.469.563ZM7.386,11.424a1.738,1.738,0,1,1,1.738,1.738A1.736,1.736,0,0,1,7.386,11.424Zm6.083,11.3a3.476,3.476,0,1,1,3.476-3.476A3.479,3.479,0,0,1,13.469,22.721Zm4.345-9.558a1.738,1.738,0,1,1,1.738-1.738A1.736,1.736,0,0,1,17.814,13.162Z" transform="translate(144.188 79.438)" fill="#f5f6fb"/>
    <g transform="matrix(1, 0, 0, 1, 0, 0)" filter="url(#Rectangle_12)">
      <rect id="Rectangle_12-2" data-name="Rectangle 12" width="70" height="23" rx="10" transform="translate(250 82)" fill="#6d51c6"/>
    </g>
    <text id="_3-2" data-name="3" transform="translate(288 98)" fill="#f5f6fb" font-size="15" font-family="ObjektivMk1-Bold, Objektiv Mk1" font-weight="700"><tspan x="-4.65" y="0">3</tspan></text>
    <path id="Icon_metro-dollar2-2" data-name="Icon metro-dollar2" d="M26.019,22.6a6.549,6.549,0,0,1-1.713,4.536,7.393,7.393,0,0,1-4.45,2.35V32.5a.53.53,0,0,1-.551.551H16.981a.559.559,0,0,1-.551-.551V29.489a10.851,10.851,0,0,1-2.195-.534,10.571,10.571,0,0,1-3.021-1.592,9.811,9.811,0,0,1-.8-.646q-.215-.207-.3-.31a.523.523,0,0,1-.034-.706l1.773-2.324a.536.536,0,0,1,.4-.207.427.427,0,0,1,.413.155l.034.034a8.989,8.989,0,0,0,4.183,2.152,6.013,6.013,0,0,0,1.274.138,4.174,4.174,0,0,0,2.453-.74,2.411,2.411,0,0,0,1.059-2.1,1.745,1.745,0,0,0-.258-.912,3.226,3.226,0,0,0-.577-.723,4.725,4.725,0,0,0-1.007-.646q-.689-.353-1.136-.551t-1.377-.559q-.671-.275-1.059-.43t-1.059-.456q-.671-.3-1.076-.534t-.973-.611a6.062,6.062,0,0,1-.921-.732,10.729,10.729,0,0,1-.749-.844,4.211,4.211,0,0,1-.611-1,6.9,6.9,0,0,1-.362-1.145,5.975,5.975,0,0,1-.146-1.343A5.886,5.886,0,0,1,12.041,8.16a7.877,7.877,0,0,1,4.39-2.307v-3.1a.559.559,0,0,1,.551-.551h2.324a.53.53,0,0,1,.551.551v3.03a9.575,9.575,0,0,1,1.9.4,11.029,11.029,0,0,1,1.5.577,8.294,8.294,0,0,1,1.093.646q.516.362.671.5t.258.241a.5.5,0,0,1,.086.654L23.971,11.31a.469.469,0,0,1-.4.275.549.549,0,0,1-.465-.121q-.052-.052-.25-.207t-.671-.456a8.883,8.883,0,0,0-1.007-.551A7.688,7.688,0,0,0,19.9,9.8a5.743,5.743,0,0,0-1.472-.2,4.474,4.474,0,0,0-2.668.74,2.314,2.314,0,0,0-.887,2.737,1.937,1.937,0,0,0,.508.714,7.586,7.586,0,0,0,.68.568,6.063,6.063,0,0,0,.964.534q.646.3,1.041.465t1.205.473q.912.344,1.394.542t1.308.6a10.4,10.4,0,0,1,1.3.732,10.991,10.991,0,0,1,1.067.861,4.457,4.457,0,0,1,.912,1.093,6.238,6.238,0,0,1,.542,1.317,5.679,5.679,0,0,1,.224,1.618Z" transform="translate(240.043 75.797)" fill="#f5f6fb"/>
    <g id="Icon_feather-settings" data-name="Icon feather-settings" transform="translate(16.3 19)">
      <path id="Path_20" data-name="Path 20" d="M13.5,18A4.5,4.5,0,1,0,18,13.5,4.5,4.5,0,0,0,13.5,18Z" transform="translate(-1.5 -1.5)" fill="none" stroke="#f5f6fb" stroke-linecap="round" stroke-linejoin="round" stroke-width="2.5"/>
      <path id="Path_21" data-name="Path 21" d="M6.9,22.5a2.475,2.475,0,0,1-.495,2.73l-.09.09a3,3,0,1,0,4.245,4.245l.09-.09a2.5,2.5,0,0,1,4.23,1.77V31.5a3,3,0,0,0,6,0v-.135a2.6,2.6,0,0,1,4.35-1.77l.09.09a3,3,0,1,0,4.245-4.245l-.09-.09a2.5,2.5,0,0,1,1.77-4.23H31.5a3,3,0,0,0,0-6h-.135A2.475,2.475,0,0,1,29.1,13.5a2.475,2.475,0,0,1,.5-2.73l.09-.09A3,3,0,1,0,25.44,6.435l-.09.09a2.475,2.475,0,0,1-2.73.495H22.5A2.475,2.475,0,0,1,21,4.755V4.5a3,3,0,0,0-6,0v.135a2.5,2.5,0,0,1-4.23,1.77l-.09-.09A3,3,0,1,0,6.435,10.56l.09.09a2.475,2.475,0,0,1,.5,2.73v.12A2.475,2.475,0,0,1,4.755,15H4.5a3,3,0,0,0,0,6h.135A2.475,2.475,0,0,1,6.9,22.5Z" transform="translate(-1.5 -1.5)" fill="none" stroke="#f5f6fb" stroke-linecap="round" stroke-linejoin="round" stroke-width="2.5"/>
    </g>
    <path id="Icon_awesome-history" data-name="Icon awesome-history" d="M33.937,17.218A16.688,16.688,0,0,1,6.777,30.243a1.614,1.614,0,0,1-.124-2.4l.758-.758a1.618,1.618,0,0,1,2.146-.133,12.382,12.382,0,1,0-.79-18.726l3.415,3.415a1.077,1.077,0,0,1-.761,1.838H1.639A1.077,1.077,0,0,1,.563,12.405V2.623A1.077,1.077,0,0,1,2.4,1.862L5.723,5.184A16.687,16.687,0,0,1,33.937,17.218Zm-12.173,5.3.661-.85a1.615,1.615,0,0,0-.283-2.266L19.4,17.273V10.252a1.615,1.615,0,0,0-1.615-1.615H16.712A1.615,1.615,0,0,0,15.1,10.252V19.38L19.5,22.8a1.615,1.615,0,0,0,2.266-.283Z" transform="translate(366.262 18.938)" fill="#f5f6fb" stroke="#9474e1" stroke-width="1"/>
    <g id="Artboard1" transform="translate(421.797 -152.362)">
      <g id="Group_12" data-name="Group 12" transform="translate(-259.662 166.72)">
        <text id="V" transform="translate(0 26)" fill="#fff" font-size="29" font-family="BerlinBold, Berlin"><tspan x="0" y="0">V</tspan></text>
        <text id="IDEO" transform="translate(19.999 26.61)" fill="#fff" font-size="23" font-family="BerlinBold, Berlin"><tspan x="0" y="0">IDEO</tspan></text>
        <text id="G" transform="translate(68.687 27)" fill="#fff" font-size="30" font-family="BerlinBold, Berlin"><tspan x="0" y="0">G</tspan></text>
        <text id="AME" transform="translate(88.153 26.61)" fill="#fff" font-size="23" font-family="BerlinBold, Berlin"><tspan x="0" y="0">AME</tspan></text>
      </g>
      <g id="Group_13" data-name="Group 13" transform="translate(-229.99 194.719)">
        <text id="CORP._COMMUNICATOR" data-name="CORP. COMMUNICATOR" transform="translate(6 10)" fill="#fff" font-size="10" font-family="Berlin"><tspan x="0" y="0">CORP. COMMUNICATOR</tspan></text>
      </g>
      <g id="Group_14" data-name="Group 14" transform="translate(-299.997 171.756)">
        <path id="Path_22" data-name="Path 22" d="M-607.025-31.905a3.077,3.077,0,0,1,2.1-.715,3.07,3.07,0,0,1,2.1.715h7.461a6.266,6.266,0,0,1,4.188,1.6,9.04,9.04,0,0,1,2.613,3.075c1.675,3.25,3.908,12.71,2.776,14.825s-3.647,6.3-9.564-2.136a43.058,43.058,0,0,1-2.938-4.782S-602.739-21-604.95-21s-6.612,1.674-6.612,1.674a42.837,42.837,0,0,1-2.938,4.782c-5.916,8.441-8.432,4.251-9.563,2.136s1.1-11.575,2.776-14.825a9.043,9.043,0,0,1,2.36-2.879,6.267,6.267,0,0,1,4.4-1.795Zm11.892,7.005a1.073,1.073,0,0,1,1.072,1.072,1.073,1.073,0,0,1-1.072,1.072,1.073,1.073,0,0,1-1.072-1.072A1.073,1.073,0,0,1-595.133-24.9Zm-20.075-.44V-24.1a.919.919,0,0,0,.918.918.919.919,0,0,0,.918-.918V-25.34h1.238a.919.919,0,0,0,.918-.918.919.919,0,0,0-.918-.918h-1.238v-1.238a.919.919,0,0,0-.918-.918.919.919,0,0,0-.918.918v1.238h-1.238a.919.919,0,0,0-.918.918.919.919,0,0,0,.918.918Zm23.435-.7a1.073,1.073,0,0,1-1.072,1.072,1.073,1.073,0,0,1-1.072-1.072,1.073,1.073,0,0,1,1.072-1.072A1.073,1.073,0,0,1-591.774-26.044Zm-4.432,0a1.073,1.073,0,0,1-1.072,1.072,1.073,1.073,0,0,1-1.072-1.072,1.073,1.073,0,0,1,1.072-1.072A1.073,1.073,0,0,1-596.206-26.044Zm1.072-3.288a1.073,1.073,0,0,1,1.072,1.072,1.073,1.073,0,0,1-1.072,1.072,1.073,1.073,0,0,1-1.072-1.072A1.073,1.073,0,0,1-595.133-29.332Z" transform="translate(624.37 32.62)" fill="#fff" fill-rule="evenodd"/>
      </g>
    </g>
    <text id="Untitled_Chicken_Game" data-name="Untitled Chicken Game" transform="translate(92 194)" fill="#fff" font-size="20" font-family="ObjektivMk1-Medium, Objektiv Mk1" font-weight="500"><tspan x="0" y="0">Untitled Chicken Game</tspan></text>
    <path id="Icon_awesome-kiwi-bird" data-name="Icon awesome-kiwi-bird" d="M86.159,30.078C85.684,21.015,77.55,14.22,68.475,14.22h-1.4A38.939,38.939,0,0,1,44.967,7.3,28.771,28.771,0,0,0,22.042,3.007C19.347,3.614-.012,9.169,0,30.979a28.7,28.7,0,0,0,14.363,24.84V66.89a2.393,2.393,0,0,0,2.394,2.394h2.394a2.393,2.393,0,0,0,2.394-2.394V58.771a28.706,28.706,0,0,0,7.182.937c.814,0,1.6-.109,2.394-.177V66.89a2.393,2.393,0,0,0,2.394,2.394H35.91A2.393,2.393,0,0,0,38.3,66.89V58a28.472,28.472,0,0,0,6.036-2.919c6.844-4.46,14.593-7.341,22.763-7.341a15.629,15.629,0,0,0,3.449-.117L81.686,68.036a2.4,2.4,0,0,0,2.1,1.248,2.353,2.353,0,0,0,.591-.075,2.393,2.393,0,0,0,1.8-2.319s.021-35.947-.024-36.812ZM69.424,34.57a3.591,3.591,0,1,1,3.591-3.591A3.592,3.592,0,0,1,69.424,34.57ZM81.394,57.5,75.43,46.566a16.727,16.727,0,0,0,5.964-3.887V57.5Z" transform="translate(68 372.216)" fill="#f5f6fb"/>
  </g>
</svg>
