%YAML 1.1
%TAG !u! tag:unity3d.com,2011:
--- !u!114 &11400000
MonoBehaviour:
  m_ObjectHideFlags: 0
  m_CorrespondingSourceObject: {fileID: 0}
  m_PrefabInstance: {fileID: 0}
  m_PrefabAsset: {fileID: 0}
  m_GameObject: {fileID: 0}
  m_Enabled: 1
  m_EditorHideFlags: 0
  m_Script: {fileID: 11500000, guid: 471013306c86548dea1bf0ef58f71755, type: 3}
  m_Name: RuleTheWorld
  m_EditorClassIdentifier: 
  cardName: Q6/RuleTheWorld
  cardDescription: "Je to neuv\u011B\u0159iteln\xE9, ale prezident byl naprosto osln\u011Bn
    sv\xFDm charismatem. Vysv\u011Btlil ti, \u017Ee na n\u011Bkoho, jako jsi ty,
    \u010Dekali zedn\xE1\u0159i dlouh\xE9 roky. Zavedl t\u011B do tajn\xE9 m\xEDstnosti
    hluboko pod povrchem zem\u011B, kde ses sezn\xE1mil s dv\u011Bma sou\u010Dasn\xFDmi
    \u0159editeli zem\u011Bkoule. Nab\xEDdli ti pozici po sv\xE9m boku."
  requirements:
  - statName: quarter
    rule: 0
    value: 6
  - statName: cult-president
    rule: 0
    value: 1
  options:
  - name: "Souhlas\xED\u0161 s p\u0159ijet\xEDm pozice za p\u0159edpokladu, \u017Ee
      si oba \u0159editel\xE9 koup\xED kopii va\u0161\xED hry."
    companyEffects: []
  - name: "Bez varov\xE1n\xED na zedn\xE1\u0159e vy\u0161le\u0161 skupinu sv\xFDch
      skryt\xFDch asas\xEDnsk\xFDch posluhova\u010D\u016F. Vl\xE1dce je jen jeden."
    companyEffects: []
  - name: "Zdvo\u0159ile odm\xEDtne\u0161, ale popros\xED\u0161 o zaveden\xED z\xE1kona,
      kter\xFD v\u0161em lidem na sv\u011Bt\u011B p\u0159ikazuje n\xE1kup hry [game
      project 1]."
    companyEffects: []
  userType: 0
  weight: 1
  priority: -1
  samePlayerAsCard: Q1/FanEmailStorm
