%YAML 1.1
%TAG !u! tag:unity3d.com,2011:
--- !u!114 &11400000
MonoBehaviour:
  m_ObjectHideFlags: 0
  m_CorrespondingSourceObject: {fileID: 0}
  m_PrefabInstance: {fileID: 0}
  m_PrefabAsset: {fileID: 0}
  m_GameObject: {fileID: 0}
  m_Enabled: 1
  m_EditorHideFlags: 0
  m_Script: {fileID: 11500000, guid: 9a29b6426c516df47a159fdc2cb25b4f, type: 3}
  m_Name: ChinaSponsorshipEffect
  m_EditorClassIdentifier: 
  effectName: ChinaSponsorshipEffect
  effectType: 1
  requirements:
  - statName: china-sponsorship
    rule: 3
    value: 1
  effects:
  - statName: pr
    value: -2
    delay: 0
    newsItems: []
  - statName: eur
    value: 2
    delay: 0
    newsItems: []
