%YAML 1.1
%TAG !u! tag:unity3d.com,2011:
--- !u!114 &11400000
MonoBehaviour:
  m_ObjectHideFlags: 0
  m_CorrespondingSourceObject: {fileID: 0}
  m_PrefabInstance: {fileID: 0}
  m_PrefabAsset: {fileID: 0}
  m_GameObject: {fileID: 0}
  m_Enabled: 1
  m_EditorHideFlags: 0
  m_Script: {fileID: 11500000, guid: 471013306c86548dea1bf0ef58f71755, type: 3}
  m_Name: KjotakuCalled
  m_EditorClassIdentifier: 
  cardName: Q1/KjotakuCalled
  cardDescription: "Z popul\xE1rn\xEDho pl\xE1tku Kj\xF3taku se ozvali ohledn\u011B
    va\u0161eho n\xE1hleho jmenov\xE1n\xED nov\xFDmi prezidenty spole\u010Dnosti.
    Cht\u011Bli by s tebou ud\u011Blat rozhovor. Ale jenom s tebou, proto\u017Ee
    jsi ze v\u0161ech \u0159editel\u016F firmy nejpohledn\u011Bj\u0161\xED."
  requirements:
  - statName: quarter
    rule: 0
    value: 1
  options:
  - name: "Jasn\u011B, vykresl\xEDm na\u0161i firmu v tom nejlep\u0161\xEDm sv\u011Btle."
    companyEffects:
    - statName: sz
      value: 1
      delay: 0
      newsItems: []
  - name: "Souhlas\xED\u0161 a rovnou ohl\xE1s\xED\u0161, \u017Ee vedle hlavn\xEDho
      projektu chyst\xE1te je\u0161t\u011B dal\u0161\xED hru!"
    companyEffects:
    - statName: pr
      value: 2
      delay: 0
      newsItems: []
    - statName: started-noman
      value: 1
      delay: 0
      newsItems: []
  - name: "Kj\xF3taku vyignoruje\u0161. V\xED\u0161, \u017Ee je to bulv\xE1rn\xED
      pl\xE1tek a v\u0161echno by oto\u010Dili proti firm\u011B."
    companyEffects:
    - statName: pr
      value: -2
      delay: 0
      newsItems: []
  userType: 2
  weight: 1
  samePlayerAsCard: 
